# u^2 n-spectrum (volumetric average) N. Schaeffer 230407 (from n=1 to nmax= 351)
# Ek=1e-8, Pr=0.01, Ra=2.5e10, P_conv_nu_QG=7.7e12, P_conv_nu=7e12
8.781532923721013963e+07
6.040797468895928934e+06
5.684872273604506999e+07
6.701400788936960511e+06
4.525890434296638519e+07
8.182904638618326746e+06
2.712571058108249307e+07
9.949822037184977904e+06
2.018321914671637863e+07
1.026214429732679948e+07
1.885186838000414148e+07
1.191403328546098247e+07
1.695439863763166592e+07
1.249653246178325824e+07
1.679075272942917421e+07
1.278477107588589378e+07
1.736157573776747286e+07
1.285628814298585057e+07
1.732170511601760611e+07
1.293473668758145720e+07
1.814406951741029322e+07
1.263968030396430008e+07
1.799941347377697006e+07
1.261619066627829894e+07
1.772598729720452800e+07
1.282988121958133020e+07
1.770229375360266864e+07
1.319709913712994754e+07
1.791048764364941791e+07
1.347615604494475201e+07
1.685894590085399523e+07
1.293935048246006109e+07
1.546777859368772432e+07
1.273342572232322767e+07
1.543011743482002243e+07
1.261504700577081554e+07
1.514481150648797490e+07
1.209356889969633892e+07
1.458268427013649233e+07
1.168355362647556886e+07
1.300798062039030157e+07
1.137897551860910282e+07
1.207764355388111994e+07
1.082907525975240394e+07
1.122098121473558433e+07
1.039602485007556900e+07
1.052482241703355871e+07
9.756814439307002351e+06
9.968481935688264668e+06
8.786188174731247127e+06
9.668411238965412602e+06
8.331993462490918115e+06
8.969420177269535139e+06
8.335691565531399101e+06
8.721504608917592093e+06
7.997342850061562844e+06
8.191318993141096085e+06
6.986149832956696860e+06
7.595856955868473276e+06
6.789049109181436710e+06
6.947138214187491685e+06
6.637571382056315430e+06
6.478364615244161338e+06
6.408553640945089981e+06
6.158302756339379586e+06
6.033440253201399930e+06
5.847902790364742279e+06
5.579931827794536017e+06
5.311088300312221982e+06
5.453023476718844846e+06
5.068706450720150024e+06
4.946959090626670048e+06
4.936943919437121600e+06
4.909382315665010363e+06
4.609323922532514669e+06
4.584704674890779890e+06
4.369941501376170665e+06
4.142206741060077213e+06
4.336738502838498913e+06
3.992012643906068522e+06
4.201126703477218747e+06
3.929415669378296472e+06
3.964014650908664335e+06
3.789092928954480682e+06
3.794284647733173333e+06
3.499167634989763144e+06
3.465035648440077901e+06
3.186161522278076503e+06
3.182985690072590485e+06
3.008035402159284335e+06
2.879714293339180294e+06
2.831329005072858650e+06
2.724698986408970784e+06
2.582117152322109323e+06
2.552435924865537323e+06
2.341924911093273200e+06
2.423999145410379395e+06
2.251381345109332819e+06
2.147471599921938032e+06
2.114112894025033806e+06
2.010523728214722592e+06
1.948711706488638185e+06
1.905882828476536321e+06
1.759077801675622119e+06
1.750335335926279426e+06
1.580546530103231315e+06
1.611607621067536762e+06
1.471012540975664044e+06
1.473097056276196614e+06
1.385246201216137968e+06
1.462535535472165328e+06
1.322340922560933046e+06
1.398309750008925097e+06
1.203820126732495148e+06
1.220740594161364250e+06
1.137287389685156289e+06
1.118317255321822129e+06
1.079629252209599596e+06
1.015711544406840228e+06
9.595064396224414231e+05
9.427077058667835081e+05
8.880953515003550565e+05
8.766271748195587425e+05
8.097056225923083257e+05
8.028835945115806535e+05
7.531872085498215165e+05
7.338345741645258386e+05
6.851015041921234224e+05
6.813418724007834680e+05
6.356471451948606409e+05
6.380734360495456494e+05
6.060188432182874531e+05
5.739220174990874948e+05
5.783344769236647990e+05
5.407953255713123363e+05
5.247861295003506821e+05
5.017272097545842407e+05
4.794790217776170466e+05
4.728783773146611056e+05
4.641299112587933778e+05
4.626797497772283386e+05
4.322407722960206447e+05
4.131343280287395464e+05
3.917555739849704551e+05
3.771583301296397694e+05
3.701407854163323645e+05
3.465605373491600039e+05
3.379059201480521588e+05
3.206795423455528799e+05
3.262234531991529511e+05
3.067942501308026840e+05
3.047591670204098336e+05
2.936290666477243067e+05
2.836843076350514893e+05
2.686418532333211624e+05
2.686088049931667629e+05
2.509915456431265047e+05
2.433258424789299024e+05
2.387671388884431217e+05
2.278886045963516517e+05
2.205643428038104030e+05
2.083614878708820324e+05
2.056992180354493612e+05
1.933128991557879781e+05
2.066826732881171920e+05
1.877199284566679562e+05
1.871240429921878385e+05
1.774867447059367842e+05
1.671301508066453389e+05
1.681330531824241043e+05
1.582063532130123640e+05
1.554554871131103428e+05
1.486216587123720674e+05
1.444018844743897789e+05
1.375957774256727134e+05
1.367653210004005814e+05
1.282724494446674216e+05
1.277435179300322343e+05
1.188342113778917410e+05
1.205992940658133739e+05
1.131313696463777451e+05
1.116126409948749206e+05
1.063662536220281181e+05
1.037613704631183500e+05
9.858560133656363178e+04
9.789492589808996127e+04
9.299195407973416150e+04
9.143653260086072260e+04
8.765911860196736234e+04
8.622953051977808354e+04
8.319635901880578604e+04
8.141758120200604026e+04
8.006932975519578031e+04
7.587660379684586951e+04
7.549056323332387547e+04
7.131112902003577619e+04
7.131450650012964616e+04
6.965937254951312207e+04
6.836632494714808126e+04
6.463541815744779160e+04
6.525573036528484226e+04
6.079537120428993512e+04
6.078603245859839080e+04
5.858518114186451567e+04
5.742367175085083727e+04
5.490705713445142464e+04
5.468115993681019609e+04
5.216665427683482994e+04
5.180139472736381140e+04
4.915333096822525840e+04
4.930525331093895511e+04
4.663042874885752826e+04
4.654811130388795573e+04
4.445827001802103769e+04
4.404505179785599466e+04
4.251658675881826639e+04
4.187837347800815769e+04
4.078208622893378197e+04
4.028951124707597046e+04
3.860032376300616306e+04
3.836785504193740053e+04
3.715125861384923337e+04
3.629461016699753236e+04
3.560277718486548838e+04
3.455069457430320472e+04
3.442868472477094474e+04
3.254114981568821895e+04
3.262475370201782789e+04
3.072182155259253705e+04
3.121274275432416835e+04
2.928770803195963890e+04
2.983749497510553920e+04
2.786112172435824687e+04
2.838850666392658604e+04
2.690985595962019579e+04
2.710072917480906108e+04
2.586917442044527343e+04
2.583778592790077892e+04
2.468696988541405153e+04
2.485420464240773435e+04
2.405510379517155889e+04
2.410366004442032863e+04
2.310758291178556465e+04
2.280102704201319648e+04
2.244474703688490990e+04
2.201731411278664018e+04
2.151523040160339224e+04
2.096116401501124346e+04
2.053075063551497442e+04
2.020611958307939130e+04
1.984256941498694505e+04
1.934770643193175056e+04
1.885442893686012394e+04
1.852062460558189923e+04
1.813485954366458827e+04
1.798651170084171827e+04
1.740885401894129609e+04
1.727236087348137517e+04
1.683529168035768453e+04
1.661353369127793121e+04
1.602870039229049871e+04
1.597831160720955268e+04
1.548193569469619979e+04
1.543490444978646883e+04
1.487468179668094308e+04
1.475345584928739117e+04
1.427557259497013183e+04
1.415081197197457368e+04
1.376901113780904598e+04
1.352204535391319223e+04
1.312449847960683110e+04
1.292717391332773150e+04
1.254561565247273393e+04
1.248155476839825315e+04
1.202876885279544513e+04
1.193526382219268817e+04
1.163428968181210075e+04
1.148731035892053478e+04
1.124531700341709256e+04
1.102453793695667446e+04
1.074118178985446502e+04
1.052205792354390906e+04
1.024916804564889026e+04
1.013545068671392801e+04
9.793349392693799018e+03
9.639304664365814460e+03
9.563015647534586606e+03
9.251208004821804934e+03
9.132634000182346426e+03
8.850532295624538165e+03
8.748168565504489379e+03
8.449545290054862562e+03
8.378699748760705916e+03
8.097968522300749100e+03
8.048394155225485520e+03
7.772518141445455512e+03
7.715955150439786848e+03
7.326323009196524254e+03
7.398700617898221026e+03
7.033809474958728970e+03
7.041086004651820986e+03
6.724108192260349824e+03
6.782367539038345058e+03
6.377278320126344624e+03
6.485147045716971661e+03
5.994616766066590571e+03
6.164270600851687050e+03
5.692622813410912386e+03
5.890429716122849641e+03
5.405206370658745072e+03
5.632495058453936508e+03
5.091853974227428807e+03
5.427697920500234432e+03
4.853534070120290380e+03
5.117096926984199854e+03
4.540005892228034099e+03
4.830575002931745985e+03
4.231348133312157188e+03
4.568243864154225776e+03
3.874363143713221689e+03
4.227108848148108336e+03
3.590765461370490812e+03
3.942195617929329728e+03
3.320719329206644943e+03
3.699716872066299857e+03
3.057708797246844370e+03
3.473960349480164496e+03
2.807825181999205142e+03
3.264292025388152524e+03
2.556590888072954385e+03
3.045089801767867357e+03
2.300488549127425813e+03
2.825804415125900050e+03
2.051507050465989778e+03
2.601317032734267286e+03
1.800441303094235082e+03
2.355897497081712118e+03
1.517410497988571024e+03
2.115337680928526424e+03
1.249453189903819521e+03
1.881023250379974115e+03
9.786636772633347618e+02
1.645361673549341276e+03
7.112572557824470323e+02
1.421058823572363735e+03
4.543213271075229613e+02
1.222623494684703019e+03
2.354521641442305508e+02
1.061006664143038279e+03
7.650767835629741853e+01
9.682854255625222777e+02
