# b^2 spectrum (volumetric average) N. Schaeffer 230313 (from n=1 to nmax)
# Ek=3e-4, Pr=1, Pm=18, Ra*=3.344e5, P_conv_eta=10.4e3, P_conv_nu=214e3
3.115650337873596243e+01
1.869267770457388451e+02
2.292556074208877082e+00
2.135245307569656745e+02
6.851292577439376430e+01
1.507999620198186506e+02
4.370160852140445584e+00
5.117573418406107066e+01
4.174135650328510749e+00
5.331254685107315794e+01
2.532072071457728057e+00
3.121501950482385013e+01
2.148235929786827203e+00
2.479194781862480923e+01
1.115022454468908686e+00
1.167075658488359835e+01
7.970472459578965552e-01
4.679000660160881786e+00
4.898606113124977512e-01
3.283544699223231778e+00
4.086475689339642559e-01
2.570243592703592928e+00
2.683176892454317564e-01
2.284717807366746900e+00
1.946333042665290003e-01
2.337725560955396187e+00
1.415855373039975051e-01
2.287631768289942080e+00
1.105144952966227029e-01
2.044465562230096900e+00
8.994537773883669318e-02
1.609993388164104422e+00
7.327269863489631330e-02
1.216707974411295856e+00
5.836301665764830754e-02
8.720883184142538269e-01
4.792938954971971005e-02
6.507230844928874047e-01
3.908064969621045937e-02
4.918955389949344337e-01
3.212406724542171688e-02
3.964787476401334110e-01
2.645697490547912686e-02
3.517739363754439630e-01
2.186200862424817620e-02
3.167340160581163522e-01
1.814124111979020099e-02
2.901262573226180974e-01
1.499914033558646075e-02
2.587230701255273657e-01
1.231120403955361653e-02
2.243354077879195219e-01
1.009360724040086685e-02
1.899122112159085107e-01
8.263889577068075573e-03
1.557418175245336434e-01
6.740343925325211621e-03
1.265822640961510037e-01
5.459214894173940180e-03
1.007358750472522047e-01
4.413280997893106149e-03
8.049958433892602516e-02
3.558508256276335380e-03
6.444211676136309130e-02
2.876476548895638349e-03
5.179842998332381127e-02
2.330279627002538202e-03
4.209043309514830244e-02
1.882831902826988257e-03
3.437731935184111520e-02
1.512510093962628590e-03
2.833373734089360274e-02
1.205008579790123064e-03
2.329385411905995559e-02
9.528742748944983706e-04
1.898074825918643488e-02
7.500937592756320212e-04
1.535055869307091168e-02
5.887929333625043470e-04
1.232458923253842119e-02
4.609643216551572212e-04
9.878519875649105844e-03
3.601336201191170832e-04
7.883621559629181916e-03
2.810241203436822290e-04
6.257877415846412224e-03
2.189892156437175637e-04
4.941313467755314645e-03
1.704692888488448506e-04
3.890792184697388148e-03
1.324288000206734332e-04
3.065058877559105090e-03
1.025352645137638723e-04
2.409269577643569603e-03
7.917884708491824811e-05
1.887435158173825190e-03
6.103580338687205720e-05
1.474945350525832611e-03
4.696037559975357417e-05
1.152968116698564966e-03
3.598937643788050481e-05
9.023913600128256494e-04
2.741391605429408922e-05
7.043432748274108986e-04
2.075775447376889928e-05
5.466030743458328732e-04
1.565651412917285301e-05
4.222918793392576990e-04
1.177619484190302376e-05
3.261894980230121022e-04
8.816440168698800494e-06
2.521330907879602997e-04
6.554316560261008979e-06
1.941742172844276209e-04
4.841173249093922579e-06
1.484607702025277846e-04
3.563330004436683429e-06
1.129101797461001534e-04
2.616824092925692050e-06
8.583093579528044124e-05
1.912203815470386676e-06
6.519163685942423920e-05
1.387133334993176020e-06
4.917187348623791024e-05
1.001523441253556003e-06
3.669841252496796821e-05
7.235260612239357377e-07
2.721966107676637199e-05
5.234839614703804724e-07
2.020276236704668285e-05
3.775653911914825133e-07
1.499106345697207949e-05
2.709130562476967893e-07
1.103848221832622197e-05
1.945757720717464185e-07
8.050489241457468604e-06
1.409353734415932825e-07
5.867646753644825884e-06
1.027494981680319831e-07
4.312354216164791464e-06
7.476444455950993230e-08
3.183359068102963683e-06
5.424502620921794070e-08
2.336456356145494070e-06
3.963172846576026965e-08
1.706170337475022578e-06
2.932623735377847773e-08
1.255208665575687904e-06
2.177525646307625108e-08
9.351568217278893193e-07
1.603059879921409660e-08
6.968530351566255449e-07
1.173820790471249499e-08
5.130203106425812003e-07
8.669225871796926902e-09
3.756447114891960803e-07
6.472748908391855332e-09
2.780758336596034399e-07
4.813538585189731771e-09
2.080324137359152036e-07
3.530774019637743197e-09
1.544224674007113602e-07
2.583543971921969929e-09
1.128243209018675188e-07
1.917165862705160264e-09
8.246248818388324035e-08
1.435998036267108389e-09
6.132713672093366431e-08
1.064568143418390223e-09
4.593336165672861672e-08
7.780885103633810935e-10
3.387682321503831171e-08
5.716195937780682148e-10
2.462021130380810888e-08
4.277743469152991046e-10
1.807562112659498416e-08
3.212089780542204351e-10
1.354758829972771637e-08
2.370839884799790196e-10
1.013341462348428488e-08
1.730753414823800715e-10
7.410611678847341964e-09
1.280916546518360090e-10
5.374905908897181074e-09
9.651649180913484376e-11
3.979969335571470438e-09
7.225537730361644161e-11
2.998420939337259710e-09
5.295101251365138331e-11
2.225863758097027371e-09
3.868067319861320912e-11
1.611864163849337276e-09
2.885250479927824053e-11
1.171989839518209804e-09
2.177222454334104673e-11
8.762889429169802727e-10
1.615241560613537535e-11
6.592741798175018793e-10
1.174521395806334010e-11
4.828917621606188764e-10
8.608445940114342914e-12
3.470322913906297373e-10
6.459304917671623825e-12
2.543053372361819997e-10
4.848210720814390180e-12
1.914921957253271332e-10
3.550368340457428170e-12
1.426876334458871315e-10
2.567824166436214310e-12
1.028717786942731041e-10
1.893001619348122302e-12
7.383075495321319909e-11
1.422681660009423095e-12
5.473080823263859785e-11
1.055354384778798180e-12
4.122410860772887931e-11
7.625318158013914402e-13
3.020282137731130492e-11
5.512012594895010364e-13
2.149377006843979621e-11
4.090355351730333395e-13
1.553794948139898374e-11
3.060523548225856922e-13
1.164352694158177808e-11
2.234247042233848424e-13
8.688545402396600668e-12
1.598484190843848762e-13
6.237821803466692541e-12
1.161586397777516543e-13
4.417759641144095461e-12
8.651093670148812038e-14
3.234765476074059060e-12
6.393709272302876802e-14
2.432573188907044144e-12
4.594279611419096645e-14
1.788177331280146083e-12
3.286727763776812388e-14
1.268704111919699062e-12
2.429385649104165112e-14
9.143220164625782668e-13
1.832860178654684042e-14
6.797188866712945959e-13
1.321298087537623639e-14
4.917565589028557166e-13
9.051518354726521159e-15
3.550141801782054189e-13
6.528842655901574257e-15
2.618804319386339562e-13
5.011741285499775164e-15
2.060914785350922101e-13
4.135273585348951820e-15
2.114842897507457237e-13
4.001150879863321746e-15
2.091057790745271995e-13
3.736810812379101864e-15
