# rho^2 spectrum (volumetric average) N. Schaeffer 230313 (from n=1 to nmax)
# Ek=3e-4, Pr=1, Pm=18, Ra*=3.344e5, P_conv_eta=10.4e3, P_conv_nu=214e3
1.052858650121507121e-16
1.800976245720717350e-03
4.141031290472224317e-17
1.029847153241895442e-02
7.194813014668686807e-17
4.790161751623348008e-04
2.526533525275858114e-17
1.056120426328624955e-04
1.319548020141709175e-17
2.407049860351343526e-05
3.038450973898781361e-18
1.208362416742462176e-05
1.835377911209373920e-18
3.554484656067993715e-06
8.085503319514536785e-19
1.177599208257575568e-06
4.614529996875127987e-19
3.338419437883857468e-07
2.563628821301861797e-19
1.530199077935331120e-07
1.536548538358854489e-19
6.663825296365244854e-08
6.687334022092996152e-20
2.611488508116742417e-08
4.778079108151693921e-20
8.905852167324453042e-09
3.507345039401027968e-20
3.945345594236428905e-09
2.149747502360592295e-20
1.963261752936960021e-09
1.078492487392165351e-20
8.579271530413984334e-10
5.743549251681190348e-21
3.456826659497518957e-10
3.226480842595071490e-21
1.722444140743189402e-10
1.889951166745488482e-21
1.183743091897573264e-10
1.161948876920796521e-21
7.952080391321936968e-11
7.831720154510645887e-22
4.769508102161919707e-11
5.162541705648946305e-22
2.885712213557885137e-11
3.183693407099150726e-22
1.859322183301767271e-11
1.823265932169238161e-22
1.210397641006600150e-11
1.069550460333081622e-22
7.486460053817979767e-12
6.346019384381199051e-23
4.558251248446835320e-12
3.846483073632688296e-23
2.945576590366666412e-12
2.364693633565808046e-23
1.938517401035752323e-12
1.471484831208209656e-23
1.274484193666542843e-12
9.652033930503069920e-24
8.353410546609347048e-13
6.702749793114868328e-24
5.393918287625033442e-13
4.566177652616125041e-24
3.424134236912418022e-13
2.969589686618510778e-24
2.133187122006679616e-13
1.810707182623241956e-24
1.352499238212000869e-13
1.110503603809374168e-24
8.958855341451486559e-14
7.230602217048574203e-25
6.133238752968441138e-14
5.015933740567888223e-25
4.216559756234355027e-14
3.479248485951605707e-25
2.854748198163109083e-14
2.367768767278074607e-25
1.942958034476717678e-14
1.638013151020820570e-25
1.334090641095357263e-14
1.134122807475250514e-25
9.183468680608051177e-15
7.851245640466967725e-26
6.364122856895161056e-15
5.415638103128015816e-26
4.435537067135925333e-15
3.752308428461074385e-26
3.130887308402737681e-15
2.651372744808389854e-26
2.230426395142744475e-15
1.878564230370739952e-26
1.594370981989389596e-15
1.336283326700597888e-26
1.150749720263118307e-15
9.679049942278809051e-27
8.386030953893244459e-16
7.178241467007098485e-27
6.154882046501656256e-16
5.411388321041402005e-27
4.517838477664014972e-16
4.082225626937152211e-27
3.302224105637052409e-16
3.075315913161876135e-27
2.406161582309016721e-16
2.316827968282205987e-27
1.746636185551655573e-16
1.744472864101581684e-27
1.263050386238177601e-16
1.309534529650865108e-27
9.085140481928825469e-17
9.790373872716484326e-28
6.497589795179229766e-17
7.309738586563084929e-28
4.619563026350471979e-17
5.442422174028703274e-28
3.259109084458992005e-17
4.024918674914976041e-28
2.280419784919180770e-17
2.946311649680424229e-28
1.581733282308612822e-17
2.131357986571823084e-28
1.088553643244004412e-17
1.525590920368638981e-28
7.444488030796313557e-18
1.081061935177336692e-28
5.063010964344604862e-18
7.583942870657179660e-29
3.428273908334667177e-18
5.269055531506476441e-29
2.313891009126248451e-18
3.629176745107089104e-29
1.560129698165003403e-18
2.483053421310330136e-29
1.053319989578745570e-18
1.691513918671570733e-29
7.135138161629510972e-19
1.150416408998736828e-29
4.854206630542753567e-19
7.820228440175787274e-30
3.314098575067559440e-19
5.312791668659765628e-30
2.269925217148215349e-19
3.612097714635625368e-30
1.560922367961627454e-19
2.464081127555689598e-30
1.078342589259868203e-19
1.688284060273144015e-30
7.478370026008068739e-20
1.159379701610662120e-30
5.197761238136735678e-20
7.963745848208054015e-31
3.618957260405103492e-20
5.477267531626511199e-31
2.525625826931475213e-20
3.780779826010511162e-31
1.767252848400951402e-20
2.618765256454435935e-31
1.238512479816807421e-20
1.814577359795042978e-31
8.681446526765094818e-21
1.256168668464615262e-31
6.088450421747001817e-21
8.712436394677838443e-32
4.278340100975395831e-21
6.072674113306170190e-32
3.014306744370985649e-21
4.248917581031220407e-32
2.127329308903439442e-21
2.973258103286749461e-32
1.502386529374376791e-21
2.079505815817189849e-32
1.062495608685500625e-21
1.459262694011932958e-32
7.538284568460547122e-22
1.030739565422748733e-32
5.369320086277209116e-22
7.312904959209736697e-33
3.834278948611693374e-22
5.188618247521430645e-33
2.741593308570507327e-22
3.680976815929477491e-33
1.964406678210409329e-22
2.623155224103107030e-33
1.413391338499891212e-22
1.883173318604817925e-33
1.021637639976261366e-22
1.357644031756080153e-33
7.405426189254079020e-23
9.784812114875215577e-34
5.375788103501280945e-23
7.056909258199947800e-34
3.912958803994493595e-23
5.120116747068912744e-34
2.861935843956842011e-23
3.744584019849283340e-34
2.103049161777286268e-23
2.748581225435194433e-34
1.549095421750129252e-23
2.016356562172045470e-34
1.142476166166540217e-23
1.481292016127037589e-34
8.449683555640505654e-24
1.095348548458089689e-34
6.278281030414197292e-24
8.157130564341458512e-35
4.682617681752351714e-24
6.087785173192025089e-35
3.497217568319800404e-24
4.538049546831025295e-35
2.613645833845930975e-24
3.387832143655403126e-35
1.958036387517283155e-24
2.543653768418462765e-35
1.472273826720718439e-24
1.919469867875653853e-35
1.109655704035227265e-24
1.448799059288055925e-35
8.364551177042068546e-25
1.091340776060777710e-35
6.305427219665956169e-25
8.230255198426165131e-36
4.761803608342266483e-25
6.234369058285597128e-36
3.605298555542339047e-25
4.737370790705399883e-36
2.733268826233016438e-25
3.596048502389577577e-36
2.070776118304441828e-25
2.724146605358943255e-36
1.568876717800679003e-25
2.066762990938853416e-36
1.190204428279336587e-25
1.573175026395567288e-36
9.045454748728568563e-26
1.199831519700041687e-36
6.887864659152121039e-26
9.152867323611838141e-37
5.242097781607420561e-26
6.978560049246280251e-37
3.985995084013038889e-26
5.295253183681962759e-37
3.012897445980598289e-26
3.967190707356168311e-37
2.274046870764457353e-26
2.980730278242828728e-37
1.728594209701436288e-26
2.255305082728862791e-37
1.307242379697244974e-26
1.687455841683036747e-37
1.008256541374603609e-26
1.316557770481864225e-37
7.941680923804378437e-27
1.091786806268546406e-37
6.263291328059924353e-27
6.523697604266747118e-38
